verilog/atm_module.vcd
$date
	Wed Nov 20 09:50:33 2024
$end
$version
	Icarus Verilog
$end
$timescale
	1ps
$end
$scope module tb_atm_module $end
$var wire 1 ! transaction_success $end
$var wire 8 " error_code [7:0] $end
$var wire 8 # current_state [7:0] $end
$var wire 16 $ balance [15:0] $end
$var reg 16 % amount [15:0] $end
$var reg 1 & balance_req $end
$var reg 1 ' card_inserted $end
$var reg 8 ( card_number_input [7:0] $end
$var reg 1 ) clk $end
$var reg 1 * deposit_req $end
$var reg 1 + pin_change_req $end
$var reg 16 , pin_input [15:0] $end
$var reg 1 - rst_n $end
$var reg 1 . transaction_done $end
$var reg 1 / withdrawal_req $end
$scope module uut $end
$var wire 16 0 amount [15:0] $end
$var wire 1 & balance_req $end
$var wire 1 ' card_inserted $end
$var wire 8 1 card_number_input [7:0] $end
$var wire 1 ) clk $end
$var wire 1 * deposit_req $end
$var wire 1 + pin_change_req $end
$var wire 16 2 pin_input [15:0] $end
$var wire 1 - rst_n $end
$var wire 1 . transaction_done $end
$var wire 1 / withdrawal_req $end
$var parameter 8 3 BALANCE_ENQ $end
$var parameter 8 4 CARD_ERROR $end
$var parameter 8 5 CARD_INSERT $end
$var parameter 8 6 CARD_VALIDATE $end
$var parameter 8 7 DEPOSIT $end
$var parameter 8 8 IDLE $end
$var parameter 8 9 INSUF_BALANCE $end
$var parameter 8 : INVALID_CARD $end
$var parameter 8 ; INVALID_PIN $end
$var parameter 8 < MENU $end
$var parameter 8 = NO_ERROR $end
$var parameter 8 > PIN_CHANGE $end
$var parameter 8 ? PIN_CHECK $end
$var parameter 8 @ PIN_ENTRY $end
$var parameter 8 A PIN_VALID $end
$var parameter 8 B WITHDRAWAL $end
$var reg 16 C balance [15:0] $end
$var reg 8 D current_state [7:0] $end
$var reg 8 E error_code [7:0] $end
$var reg 8 F next_state [7:0] $end
$var reg 3 G pin_attempts [2:0] $end
$var reg 16 H stored_pin [15:0] $end
$var reg 1 ! transaction_success $end
$upscope $end
$upscope $end
$enddefinitions $end
$comment Show the parameter values. $end
$dumpall
b10001 B
b110 A
b100 @
b101 ?
b10011 >
b0 =
b111 <
b10 ;
b1 :
b11 9
b0 8
b10010 7
b10 6
b1 5
b11 4
b10000 3
$end
#0
$dumpvars
bx H
b0 G
b0 F
b0 E
b0 D
b0 C
b0 2
b0 1
b0 0
0/
0.
0-
b0 ,
0+
0*
0)
b0 (
0'
0&
b0 %
b0 $
b0 #
b0 "
0!
$end
#5000
1)
#10000
0)
1-
#15000
1)
#20000
b1 F
0)
1'
#25000
b10 F
b1 #
b1 D
1)
#30000
b10 F
0)
b1001000110100 ,
b1001000110100 2
#35000
b100 F
b10 #
b10 D
1)
#40000
b100 F
0)
1&
#45000
b101 F
b100 #
b100 D
1)
#50000
b101 F
0)
1.
#55000
b101 #
b101 D
1)
